T_cal [°C],#events,n(T_cal),f_ice(T_cal),n_m(T_cal),concentration [mg/mL]
-2.9,1,1,0.009259259259259259,0.009302392662313561,1.0
-3.0,2,3,0.027777777777777776,0.028170876966696335,1.0
-3.1,5,8,0.07407407407407407,0.07696104113612832,1.0
-3.2,10,18,0.16666666666666666,0.1823215567939546,1.0
-3.3,38,56,0.5185185185185185,0.7308875085427923,1.0
-3.4,13,69,0.6388888888888888,1.0185695809945732,1.0
-3.5,21,90,0.8333333333333334,1.7917594692280552,1.0
-3.6,9,99,0.9166666666666666,2.484906649788,1.0
-3.7,6,105,0.9722222222222222,3.5835189384561095,1.0
-3.8,1,106,0.9814814814814815,3.988984046564276,1.0
-3.9,2,108,1.0,undefined,1.0
-3.4,2,2,0.018518518518518517,0.1869213301215252,0.1
-3.5,7,9,0.08333333333333333,0.8701137698962981,0.1
-3.6,18,27,0.25,2.876820724517809,0.1
-3.7,10,37,0.3425925925925926,4.194513500829042,0.1
-3.8,18,55,0.5092592592592593,7.1183931357209795,0.1
-3.9,19,74,0.6851851851851852,11.557707025080584,0.1
-4.0,8,82,0.7592592592592593,14.240346891027377,0.1
-4.1,13,95,0.8796296296296297,21.17181869662683,0.1
-4.2,10,105,0.9722222222222222,35.83518938456109,0.1
-4.3,1,106,0.9814814814814815,39.889840465642756,0.1
-4.4,1,107,0.9907407407407407,46.82131227124215,0.1
-4.5,1,108,1.0,undefined,0.1
-3.3,1,1,0.009259259259259259,0.9302392662313561,0.01
-3.5,7,8,0.07407407407407407,7.696104113612832,0.01
-3.6,6,14,0.12962962962962962,13.88364448542158,0.01
-3.7,19,33,0.3055555555555556,36.46431135879093,0.01
-3.8,8,41,0.37962962962962965,47.743860773325366,0.01
-3.9,12,53,0.49074074074074076,67.47980418917487,0.01
-4.0,10,63,0.5833333333333334,87.54687373539001,0.01
-4.1,12,75,0.6944444444444444,118.56236656577394,0.01
-4.2,10,85,0.7870370370370371,154.663701119507,0.01
-4.3,7,92,0.8518518518518519,190.95425048844385,0.01
-4.4,3,95,0.8796296296296297,211.71818696626832,0.01
-4.5,2,97,0.8981481481481481,228.42359543258493,0.01
-4.6,6,103,0.9537037037037037,307.269331469012,0.01
-4.8,1,104,0.9629629629629629,329.58368660043277,0.01
-4.9,1,105,0.9722222222222222,358.35189384561096,0.01
-5.0,1,106,0.9814814814814815,398.8984046564276,0.01
-5.4,2,108,1.0,undefined,0.01
-3.5,1,1,0.009259259259259259,9.302392662313562,0.001
-3.8,2,3,0.027777777777777776,28.170876966696333,0.001
-3.9,3,6,0.05555555555555555,57.158413839948636,0.001
-4.3,1,7,0.06481481481481481,67.01071028296019,0.001
-4.4,3,10,0.09259259259259259,97.16374845364774,0.001
-4.5,3,13,0.12037037037037036,128.25433552367883,0.001
-4.6,3,16,0.14814814814814814,160.34265007517936,0.001
-4.7,1,17,0.1574074074074074,171.2717206073697,0.001
-4.8,2,19,0.17592592592592593,193.49485739207987,0.001
-4.9,1,20,0.18518518518518517,204.79441264601314,0.001
-5.0,1,21,0.19444444444444445,216.22310846963595,0.001
-5.1,4,25,0.23148148148148148,263.2906193276218,0.001
-5.2,1,26,0.24074074074074073,275.4119798599665,0.001
-5.3,2,28,0.25925925925925924,300.10459245033815,0.001
-5.6,3,31,0.28703703703703703,338.32580527053574,0.001
-5.7,3,34,0.3148148148148148,378.06613392005005,0.001
-5.8,1,35,0.32407407407407407,391.6717859758286,0.001
-5.9,1,36,0.3333333333333333,405.46510810816426,0.001
-6.0,1,37,0.3425925925925926,419.45135008290424,0.001
-6.1,5,42,0.3888888888888889,492.47648509779407,0.001
-6.2,1,43,0.39814814814814814,507.74395722858253,0.001
-6.4,1,44,0.4074074074074074,523.2481437645479,0.001
-6.6,3,47,0.4351851851851852,571.2573629509084,0.001
-6.7,2,49,0.4537037037037037,604.5937832185003,0.001
-6.8,3,52,0.48148148148148145,656.7795363890702,0.001
-6.9,2,54,0.5,693.1471805599452,0.001
-7.0,1,55,0.5092592592592593,711.8393135720979,0.001
-7.1,1,56,0.5185185185185185,730.8875085427923,0.001
-7.2,1,57,0.5277777777777778,750.305594399894,0.001
-7.4,1,58,0.5370370370370371,770.1082216960738,0.001
-7.5,3,61,0.5648148148148148,831.983625414161,0.001
-7.6,4,65,0.6018518518518519,920.9311114306573,0.001
-7.7,6,71,0.6574074074074074,1071.2133144799952,0.001
-7.8,12,83,0.7685185185185185,1463.255402256019,0.001
-7.9,9,92,0.8518518518518519,1909.5425048844386,0.001
-8.0,7,99,0.9166666666666666,2484.906649788,0.001
-8.1,5,104,0.9629629629629629,3295.836866004328,0.001
-8.3,4,108,1.0,undefined,0.001
-4.0,1,1,0.009259259259259259,93.02392662313561,0.0001
-4.1,1,2,0.018518518518518517,186.92133012152522,0.0001
-4.2,1,3,0.027777777777777776,281.70876966696335,0.0001
-5.2,1,4,0.037037037037037035,377.40327982846964,0.0001
-5.3,2,6,0.05555555555555555,571.5841383994864,0.0001
-5.5,1,7,0.06481481481481481,670.1071028296019,0.0001
-5.8,1,8,0.07407407407407407,769.6104113612832,0.0001
-6.1,1,9,0.08333333333333333,870.1137698962981,0.0001
-6.2,1,10,0.09259259259259259,971.6374845364774,0.0001
-7.1,1,11,0.10185185185185185,1074.2024862083688,0.0001
-7.3,1,12,0.1111111111111111,1177.830356563835,0.0001
-7.6,2,14,0.12962962962962962,1388.364448542158,0.0001
-7.7,1,15,0.1388888888888889,1495.3173397096368,0.0001
-7.8,9,24,0.2222222222222222,2513.1442828090603,0.0001
-7.9,3,27,0.25,2876.8207245178087,0.0001
-8.0,21,48,0.4444444444444444,5877.866649021189,0.0001
-8.1,11,59,0.5462962962962963,7903.10929013593,0.0001
-8.2,12,71,0.6574074074074074,10712.133144799953,0.0001
-8.3,15,86,0.7962962962962963,15910.887737659037,0.0001
-8.4,10,96,0.8888888888888888,21972.24577336219,0.0001
-8.5,7,103,0.9537037037037037,30726.933146901196,0.0001
-8.6,3,106,0.9814814814814815,39889.84046564276,0.0001
-8.7,2,108,1.0,undefined,0.0001
-7.2,1,1,0.009259259259259259,357.7843331659062,2.6e-05
-7.6,1,2,0.018518518518518517,718.928192775097,2.6e-05
-7.7,1,3,0.027777777777777776,1083.495267949859,2.6e-05
-7.8,1,4,0.037037037037037035,1451.551076263345,2.6e-05
-7.9,4,8,0.07407407407407407,2960.0400436972436,2.6e-05
-8.0,3,11,0.10185185185185185,4131.548023878342,2.6e-05
-8.1,7,18,0.16666666666666666,7012.367568998254,2.6e-05
-8.2,15,33,0.3055555555555556,14024.735137996513,2.6e-05
-8.3,14,47,0.4351851851851852,21971.4370365734,2.6e-05
-8.4,13,60,0.5555555555555556,31189.62370062803,2.6e-05
-8.5,19,79,0.7314814814814815,50570.59219760561,2.6e-05
-8.6,4,83,0.7685185185185185,56279.05393292381,2.6e-05
-8.7,22,105,0.9722222222222222,137827.65147908113,2.6e-05
-8.8,2,107,0.9907407407407407,180081.9702740083,2.6e-05
-8.9,1,108,1.0,undefined,2.6e-05
-5.6,1,1,0.003472222222222222,347.8264376324808,1e-05
-7.4,1,2,0.006944444444444444,696.8669316093316,1e-05
-7.7,1,3,0.010416666666666666,1047.1299867295365,1e-05
-7.9,5,8,0.027777777777777776,2817.0876966696333,1e-05
-8.0,5,13,0.04513888888888889,4618.938246937458,1e-05
-8.1,5,18,0.0625,6453.852113757117,1e-05
-8.2,10,28,0.09722222222222222,10227.884912041818,1e-05
-8.3,16,44,0.1527777777777778,16579.225484274404,1e-05
-8.4,30,74,0.2569444444444444,29698.446511409442,1e-05
-8.5,23,97,0.3368055555555556,41068.705208931606,1e-05
-8.6,34,131,0.4548611111111111,60671.46747876379,1e-05
-8.7,67,198,0.6875,116315.08098056808,1e-05
-8.8,30,228,0.7916666666666666,156861.5917913845,1e-05
-8.9,19,247,0.8576388888888888,194938.84134316375,1e-05
-9.0,9,256,0.8888888888888888,219722.4577336219,1e-05
-9.1,11,267,0.9270833333333334,261843.80424125234,1e-05
-9.2,8,275,0.9548611111111112,309801.112267441,1e-05
-9.4,5,280,0.9722222222222222,358351.8938456109,1e-05
-9.5,3,283,0.9826388888888888,405352.25677018426,1e-05
-9.7,1,284,0.9861111111111112,427666.61190160585,1e-05
-9.8,1,285,0.9895833333333334,456434.8191467839,1e-05
-9.9,1,286,0.9930555555555556,496981.3299576004,1e-05
-10.2,1,287,0.9965277777777778,566296.0480135949,1e-05
-10.6,1,288,1.0,undefined,1e-05
-8.0,2,2,0.018518518518518517,4673.033253038131,4e-06
-8.1,1,3,0.027777777777777776,7042.7192416740845,4e-06
-8.3,2,5,0.046296296296296294,11850.559723645978,4e-06
-8.4,4,9,0.08333333333333333,21752.844247407455,4e-06
-8.5,6,15,0.1388888888888889,37382.93349274093,4e-06
-8.6,9,24,0.2222222222222222,62828.60707022651,4e-06
-8.7,16,40,0.37037037037037035,115655.88048702825,4e-06
-8.8,10,50,0.46296296296296297,155422.05414445014,4e-06
-8.9,10,60,0.5555555555555556,202732.5540540822,4e-06
-9.0,4,64,0.5925925925925926,224485.39830148962,4e-06
-9.1,5,69,0.6388888888888888,254642.3952486433,4e-06
-9.2,9,78,0.7222222222222222,320233.46136551606,4e-06
-9.3,9,87,0.8055555555555556,409402.1973501992,4e-06
-9.4,5,92,0.8518518518518519,477385.62622110965,4e-06
-9.5,2,94,0.8703703703703703,510768.4743772403,4e-06
-9.7,1,95,0.8796296296296297,529295.4674156709,4e-06
-9.8,2,97,0.8981481481481481,571058.9885814623,4e-06
-9.9,2,99,0.9166666666666666,621226.662447,4e-06
-10.3,1,100,0.9259259259259259,650672.421361096,4e-06
-10.8,1,101,0.9351851851851852,684055.2695172267,4e-06
-11.1,1,102,0.9444444444444444,722592.9394740411,4e-06
-12.2,1,103,0.9537037037037037,768173.32867253,4e-06
-19.3,1,104,0.9629629629629629,823959.216501082,4e-06
-27.5,1,105,0.9722222222222222,895879.7346140274,4e-06
-28.8,1,106,0.9814814814814815,997246.011641069,4e-06
-28.9,1,107,0.9907407407407407,1170532.806781054,4e-06
-31.3,1,108,1.0,undefined,4e-06
-8.2,4,4,0.037037037037037035,37740.32798284697,1e-06
-8.4,1,5,0.046296296296296294,47402.23889458391,1e-06
-8.5,1,6,0.05555555555555555,57158.41383994864,1e-06
-8.6,2,8,0.07407407407407407,76961.04113612833,1e-06
-8.7,13,21,0.19444444444444445,216223.10846963595,1e-06
-8.8,1,22,0.2037037037037037,227783.93087071198,1e-06
-8.9,6,28,0.25925925925925924,300104.5924503382,1e-06
-9.0,6,34,0.3148148148148148,378066.13392005005,1e-06
-9.1,2,36,0.3333333333333333,405465.1081081643,1e-06
-9.2,2,38,0.35185185185185186,433635.98507486074,1e-06
-9.3,2,40,0.37037037037037035,462623.521948113,1e-06
-9.4,8,48,0.4444444444444444,587786.664902119,1e-06
-9.5,3,51,0.4722222222222222,639079.9592896695,1e-06
-9.6,3,54,0.5,693147.1805599453,1e-06
-9.7,1,55,0.5092592592592593,711839.313572098,1e-06
-9.8,2,57,0.5277777777777778,750305.594399894,1e-06
-9.9,5,62,0.5740740740740741,853489.8306351248,1e-06
-10.0,3,65,0.6018518518518519,920931.1114306573,1e-06
-10.1,3,68,0.6296296296296297,993251.7730102835,1e-06
-10.2,1,69,0.6388888888888888,1018569.5809945732,1e-06
-10.6,2,71,0.6574074074074074,1071213.3144799953,1e-06
-10.7,2,73,0.6759259259259259,1126783.165634806,1e-06
-10.8,1,74,0.6851851851851852,1155770.7025080584,1e-06
-10.9,1,75,0.6944444444444444,1185623.6656577396,1e-06
-11.1,1,76,0.7037037037037037,1216395.3243244933,1e-06
-11.4,1,77,0.7129629629629629,1248144.0226390732,1e-06
-11.5,1,78,0.7222222222222222,1280933.8454620643,1e-06
-11.6,1,79,0.7314814814814815,1314835.3971377457,1e-06
-11.8,2,81,0.75,1386294.3611198906,1e-06
-12.1,2,83,0.7685185185185185,1463255.402256019,1e-06
-12.3,1,84,0.7777777777777778,1504077.3967762743,1e-06
-12.4,1,85,0.7870370370370371,1546637.0111950703,1e-06
-13.5,1,86,0.7962962962962963,1591088.773765904,1e-06
-13.6,1,87,0.8055555555555556,1637608.7894007969,1e-06
-19.3,1,88,0.8148148148148148,1686398.9535702285,1e-06
-20.6,1,89,0.8240740740740741,1737692.2479577793,1e-06
-23.0,2,91,0.8425925925925926,1848917.8830680035,1e-06
-23.6,1,92,0.8518518518518519,1909542.5048844386,1e-06
-24.3,1,93,0.8611111111111112,1974081.0260220103,1e-06
-25.4,1,94,0.8703703703703703,2043073.8975089611,1e-06
-26.3,1,95,0.8796296296296297,2117181.8696626835,1e-06
-26.6,1,96,0.8888888888888888,2197224.577336219,1e-06
-27.4,1,97,0.8981481481481481,2284235.954325849,1e-06
-28.2,1,98,0.9074074074074074,2379546.1341301748,1e-06
-28.6,1,99,0.9166666666666666,2484906.649788,1e-06
-29.3,1,100,0.9259259259259259,2602689.685444384,1e-06
-30.7,2,102,0.9444444444444444,2890371.7578961644,1e-06
-31.3,1,103,0.9537037037037037,3072693.31469012,1e-06
-32.4,1,104,0.9629629629629629,3295836.866004328,1e-06
-32.6,1,105,0.9722222222222222,3583518.9384561097,1e-06
-32.8,1,106,0.9814814814814815,3988984.046564276,1e-06
-33.3,1,107,0.9907407407407407,4682131.227124216,1e-06
-34.6,1,108,1.0,undefined,1e-06
